^C:\USERS\IVANCANALES\DOCUMENTS\VISUAL STUDIO 2015\PROJECTS\FILESYSTEM\FILESYSTEM\STDAFX.CPP
/c /ZI /nologo /W3 /WX- /sdl /Od /Oy- /D WIN32 /D _DEBUG /D _CONSOLE /D _UNICODE /D UNICODE /Gm /EHsc /RTC1 /MDd /GS /fp:precise /Zc:wchar_t /Zc:forScope /Zc:inline /Yc"stdafx.h" /Fp"DEBUG\FILESYSTEM.PCH" /Fo"DEBUG\\" /Fd"DEBUG\VC140.PDB" /Gd /TP /analyze- C:\USERS\IVANCANALES\DOCUMENTS\VISUAL STUDIO 2015\PROJECTS\FILESYSTEM\FILESYSTEM\STDAFX.CPP
^C:\USERS\IVANCANALES\DOCUMENTS\VISUAL STUDIO 2015\PROJECTS\FILESYSTEM\FILESYSTEM\BITMAP.CPP
/c /ZI /nologo /W3 /WX- /sdl /Od /Oy- /D WIN32 /D _DEBUG /D _CONSOLE /D _UNICODE /D UNICODE /Gm /EHsc /RTC1 /MDd /GS /fp:precise /Zc:wchar_t /Zc:forScope /Zc:inline /Yu"stdafx.h" /Fp"DEBUG\FILESYSTEM.PCH" /Fo"DEBUG\\" /Fd"DEBUG\VC140.PDB" /Gd /TP /analyze- C:\USERS\IVANCANALES\DOCUMENTS\VISUAL STUDIO 2015\PROJECTS\FILESYSTEM\FILESYSTEM\BITMAP.CPP
^C:\USERS\IVANCANALES\DOCUMENTS\VISUAL STUDIO 2015\PROJECTS\FILESYSTEM\FILESYSTEM\DRIVE.CPP
/c /ZI /nologo /W3 /WX- /sdl /Od /Oy- /D WIN32 /D _DEBUG /D _CONSOLE /D _UNICODE /D UNICODE /Gm /EHsc /RTC1 /MDd /GS /fp:precise /Zc:wchar_t /Zc:forScope /Zc:inline /Yu"stdafx.h" /Fp"DEBUG\FILESYSTEM.PCH" /Fo"DEBUG\\" /Fd"DEBUG\VC140.PDB" /Gd /TP /analyze- C:\USERS\IVANCANALES\DOCUMENTS\VISUAL STUDIO 2015\PROJECTS\FILESYSTEM\FILESYSTEM\DRIVE.CPP
^C:\USERS\IVANCANALES\DOCUMENTS\VISUAL STUDIO 2015\PROJECTS\FILESYSTEM\FILESYSTEM\FILESYSTEM.CPP
/c /ZI /nologo /W3 /WX- /sdl /Od /Oy- /D WIN32 /D _DEBUG /D _CONSOLE /D _UNICODE /D UNICODE /Gm /EHsc /RTC1 /MDd /GS /fp:precise /Zc:wchar_t /Zc:forScope /Zc:inline /Yu"stdafx.h" /Fp"DEBUG\FILESYSTEM.PCH" /Fo"DEBUG\\" /Fd"DEBUG\VC140.PDB" /Gd /TP /analyze- C:\USERS\IVANCANALES\DOCUMENTS\VISUAL STUDIO 2015\PROJECTS\FILESYSTEM\FILESYSTEM\FILESYSTEM.CPP
^C:\USERS\IVANCANALES\DOCUMENTS\PREGRADO\SISO 2\PROYECTO\FILESYSTEM\FILESYSTEM\STDAFX.CPP
/c /ZI /nologo /W3 /WX- /sdl /Od /Oy- /D WIN32 /D _DEBUG /D _CONSOLE /D _UNICODE /D UNICODE /Gm /EHsc /RTC1 /MDd /GS /fp:precise /Zc:wchar_t /Zc:forScope /Zc:inline /Yc"stdafx.h" /Fp"DEBUG\FILESYSTEM.PCH" /Fo"DEBUG\\" /Fd"DEBUG\VC140.PDB" /Gd /TP /analyze- C:\USERS\IVANCANALES\DOCUMENTS\PREGRADO\SISO 2\PROYECTO\FILESYSTEM\FILESYSTEM\STDAFX.CPP
^C:\USERS\IVANCANALES\DOCUMENTS\PREGRADO\SISO 2\PROYECTO\FILESYSTEM\FILESYSTEM\BITMAP.CPP
/c /ZI /nologo /W3 /WX- /sdl /Od /Oy- /D WIN32 /D _DEBUG /D _CONSOLE /D _UNICODE /D UNICODE /Gm /EHsc /RTC1 /MDd /GS /fp:precise /Zc:wchar_t /Zc:forScope /Zc:inline /Yu"stdafx.h" /Fp"DEBUG\FILESYSTEM.PCH" /Fo"DEBUG\\" /Fd"DEBUG\VC140.PDB" /Gd /TP /analyze- C:\USERS\IVANCANALES\DOCUMENTS\PREGRADO\SISO 2\PROYECTO\FILESYSTEM\FILESYSTEM\BITMAP.CPP
^C:\USERS\IVANCANALES\DOCUMENTS\PREGRADO\SISO 2\PROYECTO\FILESYSTEM\FILESYSTEM\COMMANDMANAGER.CPP
/c /ZI /nologo /W3 /WX- /sdl /Od /Oy- /D WIN32 /D _DEBUG /D _CONSOLE /D _UNICODE /D UNICODE /Gm /EHsc /RTC1 /MDd /GS /fp:precise /Zc:wchar_t /Zc:forScope /Zc:inline /Yu"stdafx.h" /Fp"DEBUG\FILESYSTEM.PCH" /Fo"DEBUG\\" /Fd"DEBUG\VC140.PDB" /Gd /TP /analyze- C:\USERS\IVANCANALES\DOCUMENTS\PREGRADO\SISO 2\PROYECTO\FILESYSTEM\FILESYSTEM\COMMANDMANAGER.CPP
^C:\USERS\IVANCANALES\DOCUMENTS\PREGRADO\SISO 2\PROYECTO\FILESYSTEM\FILESYSTEM\DRIVE.CPP
/c /ZI /nologo /W3 /WX- /sdl /Od /Oy- /D WIN32 /D _DEBUG /D _CONSOLE /D _UNICODE /D UNICODE /Gm /EHsc /RTC1 /MDd /GS /fp:precise /Zc:wchar_t /Zc:forScope /Zc:inline /Yu"stdafx.h" /Fp"DEBUG\FILESYSTEM.PCH" /Fo"DEBUG\\" /Fd"DEBUG\VC140.PDB" /Gd /TP /analyze- C:\USERS\IVANCANALES\DOCUMENTS\PREGRADO\SISO 2\PROYECTO\FILESYSTEM\FILESYSTEM\DRIVE.CPP
^C:\USERS\IVANCANALES\DOCUMENTS\PREGRADO\SISO 2\PROYECTO\FILESYSTEM\FILESYSTEM\FILESYSTEM.CPP
/c /ZI /nologo /W3 /WX- /sdl /Od /Oy- /D WIN32 /D _DEBUG /D _CONSOLE /D _UNICODE /D UNICODE /Gm /EHsc /RTC1 /MDd /GS /fp:precise /Zc:wchar_t /Zc:forScope /Zc:inline /Yu"stdafx.h" /Fp"DEBUG\FILESYSTEM.PCH" /Fo"DEBUG\\" /Fd"DEBUG\VC140.PDB" /Gd /TP /analyze- C:\USERS\IVANCANALES\DOCUMENTS\PREGRADO\SISO 2\PROYECTO\FILESYSTEM\FILESYSTEM\FILESYSTEM.CPP
