^C:\USERS\IVANCANALES\DOCUMENTS\VISUAL STUDIO 2015\PROJECTS\FILESYSTEM\FILESYSTEM\DEBUG\BITMAP.OBJ|C:\USERS\IVANCANALES\DOCUMENTS\VISUAL STUDIO 2015\PROJECTS\FILESYSTEM\FILESYSTEM\DEBUG\DRIVE.OBJ|C:\USERS\IVANCANALES\DOCUMENTS\VISUAL STUDIO 2015\PROJECTS\FILESYSTEM\FILESYSTEM\DEBUG\FILESYSTEM.OBJ|C:\USERS\IVANCANALES\DOCUMENTS\VISUAL STUDIO 2015\PROJECTS\FILESYSTEM\FILESYSTEM\DEBUG\STDAFX.OBJ
/OUT:"C:\USERS\IVANCANALES\DOCUMENTS\VISUAL STUDIO 2015\PROJECTS\FILESYSTEM\DEBUG\FILESYSTEM.EXE" /INCREMENTAL /NOLOGO KERNEL32.LIB USER32.LIB GDI32.LIB WINSPOOL.LIB COMDLG32.LIB ADVAPI32.LIB SHELL32.LIB OLE32.LIB OLEAUT32.LIB UUID.LIB ODBC32.LIB ODBCCP32.LIB /MANIFEST /MANIFESTUAC:"level='asInvoker' uiAccess='false'" /manifest:embed /DEBUG /PDB:"C:\USERS\IVANCANALES\DOCUMENTS\VISUAL STUDIO 2015\PROJECTS\FILESYSTEM\DEBUG\FILESYSTEM.PDB" /SUBSYSTEM:CONSOLE /TLBID:1 /DYNAMICBASE /NXCOMPAT /IMPLIB:"C:\USERS\IVANCANALES\DOCUMENTS\VISUAL STUDIO 2015\PROJECTS\FILESYSTEM\DEBUG\FILESYSTEM.LIB" /MACHINE:X86 DEBUG\BITMAP.OBJDEBUG\DRIVE.OBJDEBUG\FILESYSTEM.OBJDEBUG\STDAFX.OBJ
^C:\USERS\IVANCANALES\DOCUMENTS\PREGRADO\SISO 2\PROYECTO\FILESYSTEM\FILESYSTEM\DEBUG\BITMAP.OBJ|C:\USERS\IVANCANALES\DOCUMENTS\PREGRADO\SISO 2\PROYECTO\FILESYSTEM\FILESYSTEM\DEBUG\COMMANDMANAGER.OBJ|C:\USERS\IVANCANALES\DOCUMENTS\PREGRADO\SISO 2\PROYECTO\FILESYSTEM\FILESYSTEM\DEBUG\DRIVE.OBJ|C:\USERS\IVANCANALES\DOCUMENTS\PREGRADO\SISO 2\PROYECTO\FILESYSTEM\FILESYSTEM\DEBUG\FILESYSTEM.OBJ|C:\USERS\IVANCANALES\DOCUMENTS\PREGRADO\SISO 2\PROYECTO\FILESYSTEM\FILESYSTEM\DEBUG\STDAFX.OBJ
/OUT:"C:\USERS\IVANCANALES\DOCUMENTS\PREGRADO\SISO 2\PROYECTO\FILESYSTEM\DEBUG\FILESYSTEM.EXE" /INCREMENTAL /NOLOGO KERNEL32.LIB USER32.LIB GDI32.LIB WINSPOOL.LIB COMDLG32.LIB ADVAPI32.LIB SHELL32.LIB OLE32.LIB OLEAUT32.LIB UUID.LIB ODBC32.LIB ODBCCP32.LIB /MANIFEST /MANIFESTUAC:"level='asInvoker' uiAccess='false'" /manifest:embed /DEBUG /PDB:"C:\USERS\IVANCANALES\DOCUMENTS\PREGRADO\SISO 2\PROYECTO\FILESYSTEM\DEBUG\FILESYSTEM.PDB" /SUBSYSTEM:CONSOLE /TLBID:1 /DYNAMICBASE /NXCOMPAT /IMPLIB:"C:\USERS\IVANCANALES\DOCUMENTS\PREGRADO\SISO 2\PROYECTO\FILESYSTEM\DEBUG\FILESYSTEM.LIB" /MACHINE:X86 DEBUG\BITMAP.OBJDEBUG\COMMANDMANAGER.OBJDEBUG\DRIVE.OBJDEBUG\FILESYSTEM.OBJDEBUG\STDAFX.OBJ
